Rapport sur les bases de données du MALARIA
…
view(malaria_deaths_age)

Manupulation des données MALARIA DEATHS :

Le tableau de données a 6 colonnes. On va les renommer afin de mieux se familiariser avec la base de données. Etant donné que les colonnes “…1” et “code” n’ont pas d’importance, il est préférable de les supprimer.

malaria_deaths_age %>% 
  rename(pays = entity, annee = year, tranche_age = age_group, nbr.deces=deaths)%>%
  select( -...1, -code)-> data
data

## # A tibble: 30,780 x 4
##    pays        annee tranche_age nbr.deces
##    <chr>       <dbl> <chr>           <dbl>
##  1 Afghanistan  1990 Under 5          185.
##  2 Afghanistan  1991 Under 5          192.
##  3 Afghanistan  1992 Under 5          197.
##  4 Afghanistan  1993 Under 5          207.
##  5 Afghanistan  1994 Under 5          226.
##  6 Afghanistan  1995 Under 5          236.
##  7 Afghanistan  1996 Under 5          251.
##  8 Afghanistan  1997 Under 5          258.
##  9 Afghanistan  1998 Under 5          273.
## 10 Afghanistan  1999 Under 5          272.
## # ... with 30,770 more rows
…
  5.Quels sont les pays dont la somme des nombres de décès dans le temps est egale à zero?

data %>% 
   group_by(pays,annee) %>% 
  summarise(nbr_deces_par_an = sum(nbr.deces)) %>% 
   count(nbr_deces_par_an)%>%
  filter(nbr_deces_par_an == 0) %>% 
  select(pays)

## `summarise()` has grouped output by 'pays'. You can override using the `.groups` argument.

## # A tibble: 102 x 1
## # Groups:   pays [102]
##    pays               
##    <chr>              
##  1 Albania            
##  2 Andorra            
##  3 Antigua and Barbuda
##  4 Armenia            
##  5 Australasia        
##  6 Australia          
##  7 Austria            
##  8 Bahamas            
##  9 Bahrain            
## 10 Barbados           
## # ... with 92 more rows
…
