Tour de France
…
Peut-on crer une nouvelle variable km_h ?

library(skimr)
tdf1<- mutate (tdf,km_h=distance/temps_de_course)
select(tdf1,km_h)

## # A tibble: 106 x 1
##     km_h
##    <dbl>
##  1  25.7
##  2  25.3
##  3  NA  
##  4  NA  
##  5  NA  
##  6  NA  
##  7  NA  
##  8  NA  
##  9  NA  
## 10  NA  
## #  with 96 more rows
…
