Rapport statistique sur un jeu de données
…
   Tout d’abord, j’ai traité l’ensemble de données original, et j’ai obtenu deux sous-tableaux tgv_sncf et pourquoi_taux.

Sous-tableau 1 : tgv_sncf

tgv %>%
  mutate(nombre_trains = total_num_trips - num_of_canceled_trains,
         taux_retard_departure = num_late_at_departure / nombre_trains * 100,
         taux_retard_arrival = num_arriving_late / nombre_trains * 100) %>%
  select(year, month, nombre_trains, journey_time_avg, total_num_trips, num_of_canceled_trains, 
         contains("departure"), contains("departing"), contains("arrival"), 
         contains("arriving"),-contains("comment")) -> tgv_sncf

tgv_sncf

# A tibble: 5,462 x 16
    year month nombre_trains journey_time_avg total_num_trips num_of_canceled…
   <dbl> <dbl>         <dbl>            <dbl>           <dbl>            <dbl>
 1  2017     9           299             85.1             299                0
 2  2017     9           217             47.1             218                1
 3  2017     9           332            116.              333                1
 4  2017     9           480            161.              481                1
 5  2017     9           190            164.              190                0
 6  2017     9           190            129.              191                1
 7  2017     9           208            184.              208                0
 8  2017     9           214            186.              216                2
 9  2017     9           660            121.              661                1
10  2017     9           201             97.4             201                0
# … with 5,452 more rows, and 10 more variables: departure_station <chr>,
#   num_late_at_departure <dbl>, avg_delay_late_at_departure <dbl>,
#   taux_retard_departure <dbl>, avg_delay_all_departing <dbl>,
#   arrival_station <chr>, avg_delay_late_on_arrival <dbl>,
#   taux_retard_arrival <dbl>, num_arriving_late <dbl>,
#   avg_delay_all_arriving <dbl>
…
