Exam: Base de données MALARIA 2018-11-13
…
4 Vérification importation et structure des données

#------importation

malaria_deaths_age

## # A tibble: 30,780 x 6
##       X1 entity      code   year age_group deaths
##    <dbl> <chr>       <chr> <dbl> <chr>      <dbl>
##  1     1 Afghanistan AFG    1990 Under 5     185.
##  2     2 Afghanistan AFG    1991 Under 5     192.
##  3     3 Afghanistan AFG    1992 Under 5     197.
##  4     4 Afghanistan AFG    1993 Under 5     207.
##  5     5 Afghanistan AFG    1994 Under 5     226.
##  6     6 Afghanistan AFG    1995 Under 5     236.
##  7     7 Afghanistan AFG    1996 Under 5     251.
##  8     8 Afghanistan AFG    1997 Under 5     258.
##  9     9 Afghanistan AFG    1998 Under 5     273.
## 10    10 Afghanistan AFG    1999 Under 5     272.
## # … with 30,770 more rows
…
5 Manipulation du jeu de données

Le tableau de données a 6 colonnes. On va les renommer afin de mieux se familiariser avec la base de données. Etant donné que les colonnes “X1” et “code” n’ont pas d’importance, il est préférable de les supprimer.

malaria_deaths_age %>% 
  rename(pays = entity, annee = year, tranche_age = age_group, nbr.deces=deaths) %>% 
  select( -X1, -code)-> data
data

## # A tibble: 30,780 x 4
##    pays        annee tranche_age nbr.deces
##    <chr>       <dbl> <chr>           <dbl>
##  1 Afghanistan  1990 Under 5          185.
##  2 Afghanistan  1991 Under 5          192.
##  3 Afghanistan  1992 Under 5          197.
##  4 Afghanistan  1993 Under 5          207.
##  5 Afghanistan  1994 Under 5          226.
##  6 Afghanistan  1995 Under 5          236.
##  7 Afghanistan  1996 Under 5          251.
##  8 Afghanistan  1997 Under 5          258.
##  9 Afghanistan  1998 Under 5          273.
## 10 Afghanistan  1999 Under 5          272.
## # … with 30,770 more rows
…
La question 4 montre qu’il y’a des pays dont le nombre de décès dus au Paludisme au fil des années est égal à 0.

5.Quels sont les pays dont la somme des nombres de décès dans le temps est egale à zero?

data %>% 
   group_by(pays,annee) %>% 
  summarise(nbr_deces_par_an = sum(nbr.deces)) %>% 
   count(nbr_deces_par_an)%>%
  filter(nbr_deces_par_an == 0 & n==27) %>% 
  select(pays)

## # A tibble: 91 x 1
## # Groups:   pays [91]
##    pays               
##    <chr>              
##  1 Albania            
##  2 Andorra            
##  3 Antigua and Barbuda
##  4 Australasia        
##  5 Australia          
##  6 Austria            
##  7 Bahamas            
##  8 Bahrain            
##  9 Barbados           
## 10 Belarus            
## # … with 81 more rows
…
