Lecture 6 – simple stats within the tidyverse
…
2. augment

augment ajoute les valuers estimées à notre data.frame. Cela nous permet, par exemple, de voir la régression de façon visuelle (sur deux variables uniquement) en plottant les points intiaux et les points estimés. On va faire cela par étapes, et pour la rélation Ozone ~ Temp

0. regardons ce que augment fait

reg <- lm(Ozone ~ Temp, data = airquality)

reg %>% augment()

## # A tibble: 116 x 9
##    .rownames Ozone  Temp .fitted .resid   .hat .sigma  .cooksd .std.resid
##    <chr>     <int> <int>   <dbl>  <dbl>  <dbl>  <dbl>    <dbl>      <dbl>
##  1 1            41    67   15.7   25.3  0.0200   23.7 0.0119        1.08 
##  2 2            36    72   27.9    8.13 0.0120   23.8 0.000719      0.345
##  3 3            12    74   32.7  -20.7  0.0101   23.7 0.00393      -0.879
##  4 4            18    62    3.58  14.4  0.0330   23.8 0.00651       0.618
##  5 6            28    66   13.3   14.7  0.0222   23.8 0.00447       0.627
##  6 7            23    65   10.9   12.1  0.0246   23.8 0.00339       0.518
##  7 8            19    59   -3.70  22.7  0.0430   23.7 0.0215        0.979
##  8 9             8    61    1.16   6.84 0.0361   23.8 0.00162       0.294
##  9 11            7    74   32.7  -25.7  0.0101   23.7 0.00605      -1.09 
## 10 12           16    69   20.6   -4.59 0.0162   23.8 0.000313     -0.195
## # ... with 106 more rows
…
on ne peut pas rejeter l’hypothèse que l’espérance de vie soit inférieure à 60 – donc non, pris dans son ensemble l’espérance de vie dans le monde n’est pas supérieure à 60 ans (sur la période 1952-2012); la moyenne est juste inférieure à 60 et la différence avec 60 est significative.

Mais peut-être que cet âge de 60 a été dépassé à des temps différents dans des pays différents.

Si on ne voulait qu’afficher l’âge moyen par continent et année, il suffit un appel à summarise:

df %>% 
  group_by(continent, year) %>% 
  summarise(moyenne_lifeExp = mean(lifeExp))

## `summarise()` has grouped output by 'continent'. You can override using the `.groups` argument.

## # A tibble: 60 x 3
## # Groups:   continent [5]
##    continent  year moyenne_lifeExp
##    <fct>     <int>           <dbl>
##  1 Africa     1952            39.1
##  2 Africa     1957            41.3
##  3 Africa     1962            43.3
##  4 Africa     1967            45.3
##  5 Africa     1972            47.5
##  6 Africa     1977            49.6
##  7 Africa     1982            51.6
##  8 Africa     1987            53.3
##  9 Africa     1992            53.6
## 10 Africa     1997            53.6
## # ... with 50 more rows

mais si on veut tester la différence par rapport à 60 avec un test T il faut passer par un group_modify(), comme on a vu pour le lm et la correlation:

## code dans une seule pipe
df %>% 
  group_by(continent, year) %>% 
  group_modify(~tidy(t.test(.$lifeExp, mu=60, alternative = "greater")))

## # A tibble: 60 x 10
## # Groups:   continent, year [60]
##    continent  year estimate statistic p.value parameter conf.low conf.high
##    <fct>     <int>    <dbl>     <dbl>   <dbl>     <dbl>    <dbl>     <dbl>
##  1 Africa     1952     39.1    -29.2     1           51     37.9       Inf
##  2 Africa     1957     41.3    -24.0     1           51     40.0       Inf
##  3 Africa     1962     43.3    -20.5     1           51     42.0       Inf
##  4 Africa     1967     45.3    -17.4     1           51     43.9       Inf
##  5 Africa     1972     47.5    -14.1     1           51     46.0       Inf
##  6 Africa     1977     49.6    -11.0     1.00        51     48.0       Inf
##  7 Africa     1982     51.6     -8.22    1.00        51     49.9       Inf
##  8 Africa     1987     53.3     -6.10    1.00        51     51.5       Inf
##  9 Africa     1992     53.6     -4.86    1.00        51     51.4       Inf
## 10 Africa     1997     53.6     -5.07    1.00        51     51.5       Inf
## # ... with 50 more rows, and 2 more variables: method <chr>, alternative <chr>
…
