Exercices Lecture 5
…
on ne peut pas rejeter lhypothse que lesprance de vie soit infrieure  60  donc non, pris dans son esnemble lesprance de vie dans el monde nest pas suprieure  60 ans (sur la priode 1952-2012); la moyenne est juste infrieure  60 et la diffrence avec 60 est significative.

Mais peut-tre que cet ge de 60 a t dpass  des temps diffrents dans des pays diffrents.

Si on ne voulait quafficher lge moyen par continent et anne, il suffit un appel  summarise:

df %>% 
  group_by(continent, year) %>% 
  summarise(mean_lifeexp = mean(lifeExp))

## `summarise()` regrouping output by 'continent' (override with `.groups` argument)

## # A tibble: 60 x 3
## # Groups:   continent [5]
##    continent  year mean_lifeexp
##    <fct>     <int>        <dbl>
##  1 Africa     1952         39.1
##  2 Africa     1957         41.3
##  3 Africa     1962         43.3
##  4 Africa     1967         45.3
##  5 Africa     1972         47.5
##  6 Africa     1977         49.6
##  7 Africa     1982         51.6
##  8 Africa     1987         53.3
##  9 Africa     1992         53.6
## 10 Africa     1997         53.6
## #  with 50 more rows

mais si on veut tester la diffrence par rapport  60 avec in test T il faut passer par un group_modify(), comme on a vu pour le lm et la correlation:

## code dans une seule pipe
df %>% 
  group_by(continent, year) %>% 
  group_modify(~ t.test(.$lifeExp) %>%  tidy)

## # A tibble: 60 x 10
## # Groups:   continent, year [60]
##    continent  year estimate statistic  p.value parameter conf.low conf.high
##    <fct>     <int>    <dbl>     <dbl>    <dbl>     <dbl>    <dbl>     <dbl>
##  1 Africa     1952     39.1      54.8 5.44e-47        51     37.7      40.6
##  2 Africa     1957     41.3      52.9 3.00e-46        51     39.7      42.8
##  3 Africa     1962     43.3      53.2 2.44e-46        51     41.7      45.0
##  4 Africa     1967     45.3      53.7 1.42e-46        51     43.6      47.0
##  5 Africa     1972     47.5      53.3 2.09e-46        51     45.7      49.2
##  6 Africa     1977     49.6      52.5 4.53e-46        51     47.7      51.5
##  7 Africa     1982     51.6      50.4 3.40e-45        51     49.5      53.6
##  8 Africa     1987     53.3      48.9 1.58e-44        51     51.2      55.5
##  9 Africa     1992     53.6      40.9 1.20e-40        51     51.0      56.3
## 10 Africa     1997     53.6      42.5 1.82e-41        51     51.1      56.1
## #  with 50 more rows, and 2 more variables: method <chr>, alternative <chr>
…
