Getting data out of the web with R
…
on va inspecter un peu notre df

## recap

# lire la page
# read_html(URL)
# html_node(s) -> une fois slectionns les nodes avec un CSS selector
# html_table()  -> imorter dans R en data frame

df

## # A tibble: 60 x 12
##    `Rank in states `Rank in states State `Population est `Census populat
##    <chr>            <chr>            <chr> <chr>            <chr>           
##  1 1                700010000000000 Cali 39,512,223       37,254,523      
##  2 700020000000000 700020000000000 Texas 28,995,881       25,145,561      
##  3 700030000000000 700040000000000 Flor 21,477,737       18,801,310      
##  4 700040000000000 700030000000000 New  19,453,561       19,378,102      
##  5 700050000000000 700060000000000 Penn 12,801,989       12,702,379      
##  6 700060000000000 700050000000000 Illi 12,671,821       12,830,632      
##  7 700070000000000 700070000000000 Ohio  11,689,100       11,536,504      
##  8 700080000000000 700090000000000 Geor 10,617,423       9,687,653       
##  9 700090000000000 700110000000000 Nort 10,488,084       9,535,483       
## 10 700110000000000 700080000000000 Mich 9,986,857        9,883,640       
## #  with 50 more rows, and 7 more variables: `Percent change, 20102019[note
## #   1]` <chr>, `Absolute change, 2010-2019` <chr>, `Total seats in the U.S.
## #   House of Representatives, 20132023` <chr>, `Estimated population per
## #   electoral vote, 2019[note 2]` <chr>, `Estimated population per House seat,
## #   2019` <chr>, `Census population per House seat, 2010` <chr>, `Percent of
## #   the total U.S. population, 2018[note 3]` <chr>
…
Puis transformer DATA en tibble:

DATA %>% 
  tibble() %>% 
  mutate(ext = map(DATA, ~data.frame(do.call("cbind", .)))) %>% 
  unnest(ext) -> games

Quel est parmi ces jeu le plus vu?

games %>% 
  mutate(views = as.numeric(views)) %>% 
  arrange(-views)

## # A tibble: 56 x 5
##    .            PageID title         views stars                                
##    <list>       <fct>  <fct>         <dbl> <fct>                                
##  1 <named list 56     WIZ              56 "\n\t\t\t\t\t\t\t\t\t\t\t4.08 / 5.00
##  2 <named list 55     goodbye, dog    55 "\n\t\t\t\t\t\t\t\t\t\t\t4.60 / 5.00
##  3 <named list 54     <NA>             54 "\n\t\t\t\t\t\t\t\t\t\t\t4.31 / 5.00
##  4 <named list 53     Monster Sanc    53 "\n\t\t\t\t\t\t\t\t\t\t\t4.33 / 5.00
##  5 <named list 52     <NA>             52 "\n\t\t\t\t\t\t\t\t\t\t\t4.13 / 5.00
##  6 <named list 51     You Broke th    51 "\n\t\t\t\t\t\t\t\t\t\t\t3.92 / 5.00
##  7 <named list 50     CrossCode        50 "\n\t\t\t\t\t\t\t\t\t\t\t4.63 / 5.00
##  8 <named list 49     Planet Life      49 "\n\t\t\t\t\t\t\t\t\t\t\t4.30 / 5.00
##  9 <named list 48     <NA>             48 "\n\t\t\t\t\t\t\t\t\t\t\t4.07 / 5.00
## 10 <named list 47     Helmet Heroes    47 "\n\t\t\t\t\t\t\t\t\t\t\t3.65 / 5.00
## #  with 46 more rows
