rapport statistique
…
## # A tibble: 1 x 2
##   countriesAndTerritories  casTotal
##   <chr>                       <int>
## 1 United_States_of_America  8779653

Taux de ltalit dans chaque pays (nombre de dcs par rapport au nombre de cas)

df5<-df %>% 
   group_by(countriesAndTerritories) %>%
   mutate(countriesAndTerritories,casT=sum(cases),deathsT=sum(deaths),tauxLet=deathsT*100/casT) %>% 
   select(countriesAndTerritories,casT,deathsT,tauxLet,popData2019) %>% 
   distinct(countriesAndTerritories,.keep_all=TRUE)
df5

## # A tibble: 212 x 5
## # Groups:   countriesAndTerritories [212]
##    countriesAndTerritories    casT deathsT tauxLet popData2019
##    <chr>                     <int>   <int>   <dbl>       <int>
##  1 Afghanistan               41145    1529   3.72     38041757
##  2 Albania                   19729     487   2.47      2862427
##  3 Algeria                   56706    1931   3.41     43053054
##  4 Andorra                    4410      72   1.63        76177
##  5 Angola                     9644     270   2.80     31825299
##  6 Anguilla                      3       0   0           14872
##  7 Antigua_and_Barbuda         124       3   2.42        97115
##  8 Argentina               1116596   29730   2.66     44780675
##  9 Armenia                   82651    1243   1.50      2957728
## 10 Aruba                      4420      36   0.814      106310
## # ... with 202 more rows
…
## # A tibble: 1 x 5
## # Groups:   countriesAndTerritories [1]
##   countriesAndTerritories    casT deathsT tauxLet popData2019
##   <chr>                     <int>   <int>   <dbl>       <int>
## 1 France                  1198695   35541    2.96    67012883

Taux de mortalit de chaque pays (nombre de dcs par rapport  la population gnrale)

df6 <- df5 %>% 
  group_by(countriesAndTerritories) %>% 
  mutate(tauxMort=deathsT*100/popData2019) %>% 
  select(countriesAndTerritories,casT,deathsT,tauxLet,tauxMort,popData2019)
df6

## # A tibble: 212 x 6
## # Groups:   countriesAndTerritories [212]
##    countriesAndTerritories    casT deathsT tauxLet tauxMort popData2019
##    <chr>                     <int>   <int>   <dbl>    <dbl>       <int>
##  1 Afghanistan               41145    1529   3.72  0.00402     38041757
##  2 Albania                   19729     487   2.47  0.0170       2862427
##  3 Algeria                   56706    1931   3.41  0.00449     43053054
##  4 Andorra                    4410      72   1.63  0.0945         76177
##  5 Angola                     9644     270   2.80  0.000848    31825299
##  6 Anguilla                      3       0   0     0              14872
##  7 Antigua_and_Barbuda         124       3   2.42  0.00309        97115
##  8 Argentina               1116596   29730   2.66  0.0664      44780675
##  9 Armenia                   82651    1243   1.50  0.0420       2957728
## 10 Aruba                      4420      36   0.814 0.0339        106310
## # ... with 202 more rows
…
