Introduction to R and the tidyverse
…
that might or might not be linked / linkable

e.g.you might need to merge data coming from different sources (INSEE and Eurostat)

or you might do some computations / summarize and would like to merge these back

using the nycflights13 dataset again

planes

library(nycflights13)
planes <- nycflights13::planes
planes

## # A tibble: 3,322 x 9
##    tailnum  year type          manufacturer   model  engines seats speed engine 
##    <chr>   <int> <chr>         <chr>          <chr>    <int> <int> <int> <chr>  
##  1 N10156   2004 Fixed wing m EMBRAER        EMB-1       2    55    NA Turbo-
##  2 N102UW   1998 Fixed wing m AIRBUS INDUST A320-       2   182    NA Turbo-
##  3 N103US   1999 Fixed wing m AIRBUS INDUST A320-       2   182    NA Turbo-
##  4 N104UW   1999 Fixed wing m AIRBUS INDUST A320-       2   182    NA Turbo-
##  5 N10575   2002 Fixed wing m EMBRAER        EMB-1       2    55    NA Turbo-
##  6 N105UW   1999 Fixed wing m AIRBUS INDUST A320-       2   182    NA Turbo-
##  7 N107US   1999 Fixed wing m AIRBUS INDUST A320-       2   182    NA Turbo-
##  8 N108UW   1999 Fixed wing m AIRBUS INDUST A320-       2   182    NA Turbo-
##  9 N109UW   1999 Fixed wing m AIRBUS INDUST A320-       2   182    NA Turbo-
## 10 N110UW   1999 Fixed wing m AIRBUS INDUST A320-       2   182    NA Turbo-
## #  with 3,312 more rows

using the nycflights13 dataset again

airports

airports <- nycflights13::airports
airports

## # A tibble: 1,458 x 8
##    faa   name                       lat    lon   alt    tz dst   tzone          
##    <chr> <chr>                    <dbl>  <dbl> <dbl> <dbl> <chr> <chr>          
##  1 04G   Lansdowne Airport         41.1  -80.6  1044    -5 A     America/New_Yo
##  2 06A   Moton Field Municipal A  32.5  -85.7   264    -6 A     America/Chicago
##  3 06C   Schaumburg Regional       42.0  -88.1   801    -6 A     America/Chicago
##  4 06N   Randall Airport           41.4  -74.4   523    -5 A     America/New_Yo
##  5 09J   Jekyll Island Airport     31.1  -81.4    11    -5 A     America/New_Yo
##  6 0A9   Elizabethton Municipal   36.4  -82.2  1593    -5 A     America/New_Yo
##  7 0G6   Williams County Airport   41.5  -84.5   730    -5 A     America/New_Yo
##  8 0G7   Finger Lakes Regional A  42.9  -76.8   492    -5 A     America/New_Yo
##  9 0P2   Shoestring Aviation Air  39.8  -76.6  1000    -5 U     America/New_Yo
## 10 0S9   Jefferson County Intl     48.1 -123.    108    -8 A     America/Los_An
## #  with 1,448 more rows

using the nycflights13 dataset again

flights

flights <- nycflights13::flights
flights

## # A tibble: 336,776 x 19
##     year month   day dep_time sched_dep_time dep_delay arr_time sched_arr_time
##    <int> <int> <int>    <int>          <int>     <dbl>    <int>          <int>
##  1  2013     1     1      517            515         2      830            819
##  2  2013     1     1      533            529         4      850            830
##  3  2013     1     1      542            540         2      923            850
##  4  2013     1     1      544            545        -1     1004           1022
##  5  2013     1     1      554            600        -6      812            837
##  6  2013     1     1      554            558        -4      740            728
##  7  2013     1     1      555            600        -5      913            854
##  8  2013     1     1      557            600        -3      709            723
##  9  2013     1     1      557            600        -3      838            846
## 10  2013     1     1      558            600        -2      753            745
## #  with 336,766 more rows, and 11 more variables: arr_delay <dbl>,
## #   carrier <chr>, flight <int>, tailnum <chr>, origin <chr>, dest <chr>,
## #   air_time <dbl>, distance <dbl>, hour <dbl>, minute <dbl>, time_hour <dttm>
…
in our case: * do newer planes fly the longest routes from NYC?*

we have most information on the flights dataset

we need only the year built from the planes dataset

answering our question  joining

distance <- flights %>% select(tailnum, distance)
yearbuilt <- planes %>% select(tailnum, year)
answer <- left_join(distance, yearbuilt, by = "tailnum")
answer

## # A tibble: 336,776 x 3
##    tailnum distance  year
##    <chr>      <dbl> <int>
##  1 N14228      1400  1999
##  2 N24211      1416  1998
##  3 N619AA      1089  1990
##  4 N804JB      1576  2012
##  5 N668DN       762  1991
##  6 N39463       719  2012
##  7 N516JB      1065  2000
##  8 N829AS       229  1998
##  9 N593JB       944  2004
## 10 N3ALAA       733    NA
## #  with 336,766 more rows
…
note: 1 mtre = 3,28084 feet

altitude is in the airports df (in feet)

flights are in the flights df

solution

a lot of flights, since denver sits at 1600mt!

alt_df <- airports %>% select(faa,alt) %>% mutate(alt = alt/3.28024) %>% rename(dest = faa)
answer <- left_join(flights, alt_df, by = "dest") %>% filter(alt>1000) 
answer

## # A tibble: 10,291 x 20
##     year month   day dep_time sched_dep_time dep_delay arr_time sched_arr_time
##    <int> <int> <int>    <int>          <int>     <dbl>    <int>          <int>
##  1  2013     1     1      646            645         1      910            916
##  2  2013     1     1      655            655         0     1021           1030
##  3  2013     1     1      727            730        -3      959            952
##  4  2013     1     1      752            750         2     1025           1029
##  5  2013     1     1      754            755        -1     1103           1030
##  6  2013     1     1      813            815        -2     1103           1056
##  7  2013     1     1      833            835        -2     1134           1102
##  8  2013     1     1      848            851        -3     1155           1136
##  9  2013     1     1      906            843        23     1134           1125
## 10  2013     1     1      926            928        -2     1233           1220
## #  with 10,281 more rows, and 12 more variables: arr_delay <dbl>,
## #   carrier <chr>, flight <int>, tailnum <chr>, origin <chr>, dest <chr>,
## #   air_time <dbl>, distance <dbl>, hour <dbl>, minute <dbl>, time_hour <dttm>,
## #   alt <dbl>
…
